NYC squirrels
…
# show the data
# don't forget that you can also use view(squirrels) to do this
squirrels

## # A tibble: 3,023 x 36
##        X     Y `Unique Squirre Hectare Shift   Date `Hectare Squirr Age  
##    <dbl> <dbl> <chr>            <chr>   <chr>  <dbl>            <dbl> <chr>
##  1 -74.0  40.8 37F-PM-1014-03   37F     PM    1.01e7                3 <NA> 
##  2 -74.0  40.8 37E-PM-1006-03   37E     PM    1.01e7                3 Adult
##  3 -74.0  40.8 2E-AM-1010-03    02E     AM    1.01e7                3 Adult
##  4 -74.0  40.8 5D-PM-1018-05    05D     PM    1.02e7                5 Juve
##  5 -74.0  40.8 39B-AM-1018-01   39B     AM    1.02e7                1 <NA> 
##  6 -74.0  40.8 33H-AM-1019-02   33H     AM    1.02e7                2 Juve
##  7 -74.0  40.8 6G-PM-1020-02    06G     PM    1.02e7                2 Adult
##  8 -74.0  40.8 35C-PM-1013-03   35C     PM    1.01e7                3 <NA> 
##  9 -74.0  40.8 7B-AM-1008-09    07B     AM    1.01e7                9 Adult
## 10 -74.0  40.8 32E-PM-1017-14   32E     PM    1.02e7               14 Adult
## #  with 3,013 more rows, and 28 more variables: `Primary Fur Color` <chr>,
## #   `Highlight Fur Color` <chr>, `Combination of Primary and Highlight
## #   Color` <chr>, `Color notes` <chr>, Location <chr>, `Above Ground Sighter
## #   Measurement` <chr>, `Specific Location` <chr>, Running <lgl>,
## #   Chasing <lgl>, Climbing <lgl>, Eating <lgl>, Foraging <lgl>, `Other
## #   Activities` <chr>, Kuks <lgl>, Quaas <lgl>, Moans <lgl>, `Tail
## #   flags` <lgl>, `Tail twitches` <lgl>, Approaches <lgl>, Indifferent <lgl>,
## #   `Runs from` <lgl>, `Other Interactions` <chr>, `Lat/Long` <chr>, `Zip
## #   Codes` <dbl>, `Community Districts` <dbl>, `Borough Boundaries` <dbl>,
…
