Basic introduction to data exploration / visualisation using data from the coronavirus package
…
We know now that coronavirus contains data from January 2020 to January 2021 for 191 different countries and that it provides information (via the variable type) on the number of confirmed cases, deaths and recovered cases.

Extracting subsets of data: confirmed cases in South Australia

Lets say were interested in the number of confirmed cases in South Australia over time. To do this, we need to know how to extract subsets of the data. This is done using the verb filter, which serves to select certain rows according to a specified criterion.

First, lets try extracting all observations for South Australia. Here, the pipe operator (%>%) directs the gapminder data set to the filter command. Note that were not changing the original dataframe, were just selecting observations and printing the result. filter and the other data transformation commands that we use below are loaded as part of the tidyverse package (technically speaking, theyre part of the dplyr package, which is one of the packages making up the overall tidyverse). We will generally load the full tidyverse for convenience.

coronavirus %>% 
  filter(province == "South Australia")

## # A tibble: 1,056 x 7
##    date       province        country     lat  long type      cases
##    <date>     <chr>           <chr>     <dbl> <dbl> <chr>     <int>
##  1 2020-01-22 South Australia Australia -34.9  139. confirmed     0
##  2 2020-01-23 South Australia Australia -34.9  139. confirmed     0
##  3 2020-01-24 South Australia Australia -34.9  139. confirmed     0
##  4 2020-01-25 South Australia Australia -34.9  139. confirmed     0
##  5 2020-01-26 South Australia Australia -34.9  139. confirmed     0
##  6 2020-01-27 South Australia Australia -34.9  139. confirmed     0
##  7 2020-01-28 South Australia Australia -34.9  139. confirmed     0
##  8 2020-01-29 South Australia Australia -34.9  139. confirmed     0
##  9 2020-01-30 South Australia Australia -34.9  139. confirmed     0
## 10 2020-01-31 South Australia Australia -34.9  139. confirmed     0
## #  with 1,046 more rows

Note: the == here is a logical equals, which is what we use when we look at an equivalence of values.

We can do the same to isolate just the confirmed cases by filtering on type.

coronavirus %>% 
  filter(type == "confirmed")

## # A tibble: 95,744 x 7
##    date       province country       lat  long type      cases
##    <date>     <chr>    <chr>       <dbl> <dbl> <chr>     <int>
##  1 2020-01-22 ""       Afghanistan  33.9  67.7 confirmed     0
##  2 2020-01-23 ""       Afghanistan  33.9  67.7 confirmed     0
##  3 2020-01-24 ""       Afghanistan  33.9  67.7 confirmed     0
##  4 2020-01-25 ""       Afghanistan  33.9  67.7 confirmed     0
##  5 2020-01-26 ""       Afghanistan  33.9  67.7 confirmed     0
##  6 2020-01-27 ""       Afghanistan  33.9  67.7 confirmed     0
##  7 2020-01-28 ""       Afghanistan  33.9  67.7 confirmed     0
##  8 2020-01-29 ""       Afghanistan  33.9  67.7 confirmed     0
##  9 2020-01-30 ""       Afghanistan  33.9  67.7 confirmed     0
## 10 2020-01-31 ""       Afghanistan  33.9  67.7 confirmed     0
## #  with 95,734 more rows

But we of course want to combine both of these criteria to look at all confirmed cases in South Australia. This is easy to do:

coronavirus %>% 
  filter(province == "South Australia" & type == "confirmed")

## # A tibble: 352 x 7
##    date       province        country     lat  long type      cases
##    <date>     <chr>           <chr>     <dbl> <dbl> <chr>     <int>
##  1 2020-01-22 South Australia Australia -34.9  139. confirmed     0
##  2 2020-01-23 South Australia Australia -34.9  139. confirmed     0
##  3 2020-01-24 South Australia Australia -34.9  139. confirmed     0
##  4 2020-01-25 South Australia Australia -34.9  139. confirmed     0
##  5 2020-01-26 South Australia Australia -34.9  139. confirmed     0
##  6 2020-01-27 South Australia Australia -34.9  139. confirmed     0
##  7 2020-01-28 South Australia Australia -34.9  139. confirmed     0
##  8 2020-01-29 South Australia Australia -34.9  139. confirmed     0
##  9 2020-01-30 South Australia Australia -34.9  139. confirmed     0
## 10 2020-01-31 South Australia Australia -34.9  139. confirmed     0
## #  with 342 more rows

We want to do some more exploration on this particular subset of the data. So lets save it as a new object using the assignment operator <-. Note how the syntax is exactly the same as above except for the fact that were saving the output as a new object SA_confirmed using <-.

SA_confirmed <- coronavirus %>% 
  filter(province == "South Australia" & type == "confirmed")

With our new data frame SA_confirmed, we can now start asking some more useful questions. For example, we can look at only those days where SA recorded confirmed cases  again using filter.

SA_confirmed %>% 
  filter(cases > 0)

## # A tibble: 104 x 7
##    date       province        country     lat  long type      cases
##    <date>     <chr>           <chr>     <dbl> <dbl> <chr>     <int>
##  1 2020-02-01 South Australia Australia -34.9  139. confirmed     1
##  2 2020-02-02 South Australia Australia -34.9  139. confirmed     1
##  3 2020-02-29 South Australia Australia -34.9  139. confirmed     1
##  4 2020-03-04 South Australia Australia -34.9  139. confirmed     2
##  5 2020-03-06 South Australia Australia -34.9  139. confirmed     2
##  6 2020-03-11 South Australia Australia -34.9  139. confirmed     2
##  7 2020-03-13 South Australia Australia -34.9  139. confirmed     7
##  8 2020-03-14 South Australia Australia -34.9  139. confirmed     3
##  9 2020-03-15 South Australia Australia -34.9  139. confirmed     1
## 10 2020-03-16 South Australia Australia -34.9  139. confirmed     9
## #  with 94 more rows

This shows that we actually recorded our first case at the beginning of February 2020. This was quite surprising to me!

Also note the difference between filtering for numeric variables such as cases and character variables such as province. A value for province (such as South Australia needs to be enclosed in quotes as it is a character string. A value for cases (such as 0), by contrast, is numeric and doesnt need to be enclosed in quotes.

Sorting data: days with the highest numbers of confirmed cases

What if we want to look at the worst days in terms of the number of confirmed cases? The easiest way to do this is to sort by the number of cases using the arrange verb. Note how the syntax is exactly the same as for filter: the only thing that changes is the operation conducted.

SA_confirmed %>% 
  arrange(cases)

## # A tibble: 352 x 7
##    date       province        country     lat  long type      cases
##    <date>     <chr>           <chr>     <dbl> <dbl> <chr>     <int>
##  1 2021-01-04 South Australia Australia -34.9  139. confirmed    -2
##  2 2020-08-05 South Australia Australia -34.9  139. confirmed    -1
##  3 2020-11-26 South Australia Australia -34.9  139. confirmed    -1
##  4 2020-11-28 South Australia Australia -34.9  139. confirmed    -1
##  5 2020-01-22 South Australia Australia -34.9  139. confirmed     0
##  6 2020-01-23 South Australia Australia -34.9  139. confirmed     0
##  7 2020-01-24 South Australia Australia -34.9  139. confirmed     0
##  8 2020-01-25 South Australia Australia -34.9  139. confirmed     0
##  9 2020-01-26 South Australia Australia -34.9  139. confirmed     0
## 10 2020-01-27 South Australia Australia -34.9  139. confirmed     0
## #  with 342 more rows

Sorting by the number of confirmed cases shows that there were negative case numbers on some days  Whats going on here?  If we were doing a real analysis of these data, we would probably want to figure this out before proceeding!

Exercise: See if you can figure out what the negative numbers mean. Hint: you can get more information on the data and their source by typing ?coronavirus into the console.

What we would really like to do is sort in a descending order (i.e.with the highest number of cases at the top). This is easily done by adding a minus sign (-).

SA_confirmed %>% 
  arrange(-cases)

## # A tibble: 352 x 7
##    date       province        country     lat  long type      cases
##    <date>     <chr>           <chr>     <dbl> <dbl> <chr>     <int>
##  1 2020-03-26 South Australia Australia -34.9  139. confirmed    65
##  2 2020-03-24 South Australia Australia -34.9  139. confirmed    36
##  3 2020-03-23 South Australia Australia -34.9  139. confirmed    34
##  4 2020-03-22 South Australia Australia -34.9  139. confirmed    33
##  5 2020-03-31 South Australia Australia -34.9  139. confirmed    32
##  6 2020-03-28 South Australia Australia -34.9  139. confirmed    30
##  7 2020-04-01 South Australia Australia -34.9  139. confirmed    30
##  8 2020-04-03 South Australia Australia -34.9  139. confirmed    29
##  9 2020-03-27 South Australia Australia -34.9  139. confirmed    22
## 10 2020-11-15 South Australia Australia -34.9  139. confirmed    22
## #  with 342 more rows

Combining operations

Note that we can also sequence verbs such as filter and arrange. If we wanted to extract observations where there had been > 0 deaths in Victoria, for example, and then sort in descending order, this is easily accomplished:

coronavirus %>% 
  filter(province == "Victoria" & type == "death" & cases > 0) %>% 
  arrange(-cases)

## # A tibble: 107 x 7
##    date       province country     lat  long type  cases
##    <date>     <chr>    <chr>     <dbl> <dbl> <chr> <int>
##  1 2020-09-03 Victoria Australia -37.8  145. death    59
##  2 2020-08-30 Victoria Australia -37.8  145. death    41
##  3 2020-08-16 Victoria Australia -37.8  145. death    25
##  4 2020-08-25 Victoria Australia -37.8  145. death    24
##  5 2020-08-26 Victoria Australia -37.8  145. death    23
##  6 2020-08-11 Victoria Australia -37.8  145. death    21
##  7 2020-08-09 Victoria Australia -37.8  145. death    18
##  8 2020-08-10 Victoria Australia -37.8  145. death    18
##  9 2020-08-08 Victoria Australia -37.8  145. death    17
## 10 2020-08-17 Victoria Australia -37.8  145. death    17
## #  with 97 more rows
…
select()  select variables based on names

mutate()  add new variables as a function of existing ones

summarise()  reduce multiple values to a summary statistic

Here, we briefly examine select and mutate.

As its name suggests, select lets you select variables based on their names. This is useful, for example, when you are reading in a big data set with many variables that you dont need. In our case, we might not be interested in latitude and longitude values, for example, and thus want to remove these columns. To do this, we apply select to the variables that we want to keep:

coronavirus %>% 
  select(date, province, country, type, cases)

## # A tibble: 281,952 x 5
##    date       province country     type      cases
##    <date>     <chr>    <chr>       <chr>     <int>
##  1 2020-01-22 ""       Afghanistan confirmed     0
##  2 2020-01-23 ""       Afghanistan confirmed     0
##  3 2020-01-24 ""       Afghanistan confirmed     0
##  4 2020-01-25 ""       Afghanistan confirmed     0
##  5 2020-01-26 ""       Afghanistan confirmed     0
##  6 2020-01-27 ""       Afghanistan confirmed     0
##  7 2020-01-28 ""       Afghanistan confirmed     0
##  8 2020-01-29 ""       Afghanistan confirmed     0
##  9 2020-01-30 ""       Afghanistan confirmed     0
## 10 2020-01-31 ""       Afghanistan confirmed     0
## #  with 281,942 more rows

Alternatively, we can specify the variables that we want to deselect by using a minus sign:

coronavirus %>% 
  select(-lat, -long)

## # A tibble: 281,952 x 5
##    date       province country     type      cases
##    <date>     <chr>    <chr>       <chr>     <int>
##  1 2020-01-22 ""       Afghanistan confirmed     0
##  2 2020-01-23 ""       Afghanistan confirmed     0
##  3 2020-01-24 ""       Afghanistan confirmed     0
##  4 2020-01-25 ""       Afghanistan confirmed     0
##  5 2020-01-26 ""       Afghanistan confirmed     0
##  6 2020-01-27 ""       Afghanistan confirmed     0
##  7 2020-01-28 ""       Afghanistan confirmed     0
##  8 2020-01-29 ""       Afghanistan confirmed     0
##  9 2020-01-30 ""       Afghanistan confirmed     0
## 10 2020-01-31 ""       Afghanistan confirmed     0
## #  with 281,942 more rows

Lets say we now wanted to normalise the number of confirmed cases by population for better comparability. To do this, we use mutate to create a new variable cases_norm, drawing on a population estimate of 1,769,319 for SA (estimated population in June 2020 according to Wikipedia:

coronavirus %>% 
  # only keep observations with cases > 0 to reduce the amount of data
  filter(province == "South Australia" & type == "confirmed" & cases > 0) %>% 
  mutate(cases_norm = cases / 1769319)

## # A tibble: 104 x 8
##    date       province        country     lat  long type      cases  cases_norm
##    <date>     <chr>           <chr>     <dbl> <dbl> <chr>     <int>       <dbl>
##  1 2020-02-01 South Australia Australia -34.9  139. confirmed     1 0.000000565
##  2 2020-02-02 South Australia Australia -34.9  139. confirmed     1 0.000000565
##  3 2020-02-29 South Australia Australia -34.9  139. confirmed     1 0.000000565
##  4 2020-03-04 South Australia Australia -34.9  139. confirmed     2 0.00000113 
##  5 2020-03-06 South Australia Australia -34.9  139. confirmed     2 0.00000113 
##  6 2020-03-11 South Australia Australia -34.9  139. confirmed     2 0.00000113 
##  7 2020-03-13 South Australia Australia -34.9  139. confirmed     7 0.00000396 
##  8 2020-03-14 South Australia Australia -34.9  139. confirmed     3 0.00000170 
##  9 2020-03-15 South Australia Australia -34.9  139. confirmed     1 0.000000565
## 10 2020-03-16 South Australia Australia -34.9  139. confirmed     9 0.00000509 
## #  with 94 more rows

From this, we can calculate incidence rates, e.g.per 100,000 people. Note how we can create multiple new variables with only one use of mutate and how the second variable created can draw on the first.

coronavirus %>% 
  # only keep observations with cases > 0 to reduce the amount of data
  filter(province == "South Australia" & type == "confirmed" & cases > 0) %>% 
  mutate(cases_norm = cases / 1769319,
         incidence = cases_norm * 100000) %>% 
  arrange(-incidence)

## # A tibble: 104 x 9
##    date       province    country    lat  long type   cases cases_norm incidence
##    <date>     <chr>       <chr>    <dbl> <dbl> <chr>  <int>      <dbl>     <dbl>
##  1 2020-03-26 South Aust Austral -34.9  139. confi    65  0.0000367      3.67
##  2 2020-03-24 South Aust Austral -34.9  139. confi    36  0.0000203      2.03
##  3 2020-03-23 South Aust Austral -34.9  139. confi    34  0.0000192      1.92
##  4 2020-03-22 South Aust Austral -34.9  139. confi    33  0.0000187      1.87
##  5 2020-03-31 South Aust Austral -34.9  139. confi    32  0.0000181      1.81
##  6 2020-03-28 South Aust Austral -34.9  139. confi    30  0.0000170      1.70
##  7 2020-04-01 South Aust Austral -34.9  139. confi    30  0.0000170      1.70
##  8 2020-04-03 South Aust Austral -34.9  139. confi    29  0.0000164      1.64
##  9 2020-03-27 South Aust Austral -34.9  139. confi    22  0.0000124      1.24
## 10 2020-11-15 South Aust Austral -34.9  139. confi    22  0.0000124      1.24
## #  with 94 more rows
…
