Importing data
…
---

# Challenges I: variable names

* Some variables have spaces in their names
* This is cumbersome, as we would always have to enclose the variable name in single backward quotes
* Try out what happens when you omit the quotation marks or use a different type of quotation marks

```r
squirrels %>%
  filter(`Primary Fur Color` == "Gray")
```

```
## # A tibble: 2,473 x 36
##        X     Y `Unique Squirre… Hectare Shift   Date `Hectare Squirr… Age   `Primary Fur Co… `Highlight Fur …
##    <dbl> <dbl> <chr>            <chr>   <chr>  <dbl>            <dbl> <chr> <chr>            <chr>           
##  1 -74.0  40.8 37E-PM-1006-03   37E     PM    1.01e7                3 Adult Gray             Cinnamon        
##  2 -74.0  40.8 5D-PM-1018-05    05D     PM    1.02e7                5 Juve… Gray             <NA>            
##  3 -74.0  40.8 33H-AM-1019-02   33H     AM    1.02e7                2 Juve… Gray             Cinnamon        
##  4 -74.0  40.8 6G-PM-1020-02    06G     PM    1.02e7                2 Adult Gray             <NA>            
##  5 -74.0  40.8 35C-PM-1013-03   35C     PM    1.01e7                3 <NA>  Gray             Cinnamon        
##  6 -74.0  40.8 7B-AM-1008-09    07B     AM    1.01e7                9 Adult Gray             <NA>            
##  7 -74.0  40.8 32E-PM-1017-14   32E     PM    1.02e7               14 Adult Gray             <NA>            
##  8 -74.0  40.8 13E-AM-1017-05   13E     AM    1.02e7                5 Adult Gray             Cinnamon        
##  9 -74.0  40.8 36H-AM-1010-02   36H     AM    1.01e7                2 Adult Gray             <NA>            
## 10 -74.0  40.8 33F-AM-1008-02   33F     AM    1.01e7                2 Adult Gray             <NA>            
## # … with 2,463 more rows, and 26 more variables: `Combination of Primary and Highlight Color` <chr>, `Color
## #   notes` <chr>, Location <chr>, `Above Ground Sighter Measurement` <chr>, `Specific Location` <chr>,
## #   Running <lgl>, Chasing <lgl>, Climbing <lgl>, Eating <lgl>, Foraging <lgl>, `Other Activities` <chr>,
## #   Kuks <lgl>, Quaas <lgl>, Moans <lgl>, `Tail flags` <lgl>, `Tail twitches` <lgl>, Approaches <lgl>,
## #   Indifferent <lgl>, `Runs from` <lgl>, `Other Interactions` <chr>, `Lat/Long` <chr>, `Zip Codes` <dbl>,
## #   `Community Districts` <dbl>, `Borough Boundaries` <dbl>, `City Council Districts` <dbl>, `Police
## #   Precincts` <dbl>
```
…
# Challenges I: variable names

* We can fix this by renaming the variable using the `rename` function
* Note how I've changed the spelling of "colour" at the same time

```r
squirrels <- squirrels %>%
  rename(primary_fur_colour = `Primary Fur Color`)

squirrels %>%
  filter(primary_fur_colour == "Gray")
```

```
## # A tibble: 2,473 x 36
##        X     Y `Unique Squirre… Hectare Shift   Date `Hectare Squirr… Age   primary_fur_col… `Highlight Fur …
##    <dbl> <dbl> <chr>            <chr>   <chr>  <dbl>            <dbl> <chr> <chr>            <chr>           
##  1 -74.0  40.8 37E-PM-1006-03   37E     PM    1.01e7                3 Adult Gray             Cinnamon        
##  2 -74.0  40.8 5D-PM-1018-05    05D     PM    1.02e7                5 Juve… Gray             <NA>            
##  3 -74.0  40.8 33H-AM-1019-02   33H     AM    1.02e7                2 Juve… Gray             Cinnamon        
##  4 -74.0  40.8 6G-PM-1020-02    06G     PM    1.02e7                2 Adult Gray             <NA>            
##  5 -74.0  40.8 35C-PM-1013-03   35C     PM    1.01e7                3 <NA>  Gray             Cinnamon        
##  6 -74.0  40.8 7B-AM-1008-09    07B     AM    1.01e7                9 Adult Gray             <NA>            
##  7 -74.0  40.8 32E-PM-1017-14   32E     PM    1.02e7               14 Adult Gray             <NA>            
##  8 -74.0  40.8 13E-AM-1017-05   13E     AM    1.02e7                5 Adult Gray             Cinnamon        
##  9 -74.0  40.8 36H-AM-1010-02   36H     AM    1.01e7                2 Adult Gray             <NA>            
## 10 -74.0  40.8 33F-AM-1008-02   33F     AM    1.01e7                2 Adult Gray             <NA>            
## # … with 2,463 more rows, and 26 more variables: `Combination of Primary and Highlight Color` <chr>, `Color
## #   notes` <chr>, Location <chr>, `Above Ground Sighter Measurement` <chr>, `Specific Location` <chr>,
## #   Running <lgl>, Chasing <lgl>, Climbing <lgl>, Eating <lgl>, Foraging <lgl>, `Other Activities` <chr>,
## #   Kuks <lgl>, Quaas <lgl>, Moans <lgl>, `Tail flags` <lgl>, `Tail twitches` <lgl>, Approaches <lgl>,
## #   Indifferent <lgl>, `Runs from` <lgl>, `Other Interactions` <chr>, `Lat/Long` <chr>, `Zip Codes` <dbl>,
## #   `Community Districts` <dbl>, `Borough Boundaries` <dbl>, `City Council Districts` <dbl>, `Police
## #   Precincts` <dbl>
```
…
