A first example
…
---

# Where am I most likely to see a squirrel?

.pull-left[
* for a first look, we can look at the number of sightings per hectare
* we first summarise counts per hectare

]

.pull-right[

```
## # A tibble: 339 x 2
##    hectare     n
##    <chr>   <int>
##  1 01A        11
##  2 01B        27
##  3 01C        12
##  4 01D        16
##  5 01E         8
##  6 01F         8
##  7 01G         7
##  8 01H         4
##  9 01I         4
## 10 02A        15
## # … with 329 more rows
```
…
---

# A more informative version

.pull-left[
* counts per hectare are not very informative (339 hectares!)
* let's divide these into the two grid dimensions:
  * N-S: 1-42
  * E-W: A-I
]

.pull-right[

```
## # A tibble: 339 x 4
##    hectare     n NS    EW   
##    <chr>   <int> <chr> <chr>
##  1 01A        11 01    A    
##  2 01B        27 01    B    
##  3 01C        12 01    C    
##  4 01D        16 01    D    
##  5 01E         8 01    E    
##  6 01F         8 01    F    
##  7 01G         7 01    G    
##  8 01H         4 01    H    
##  9 01I         4 01    I    
## 10 02A        15 02    A    
## # … with 329 more rows
```
…
